{
  "name": "selena.web",
  "version": "0.1.0",
  "private": false,
  "scripts": {
    "serve": "vue-cli-service serve",
    "build": "vue-cli-service build",
    "lint": "vue-cli-service lint"
  },
  "dependencies": {
    "@alfsnd/vue-bootstrap-select": "^0.4.3",
    "@fortawesome/fontawesome-free": "^5.12.1",
    "@fortawesome/fontawesome-svg-core": "^1.2.27",
    "@fortawesome/free-brands-svg-icons": "^5.12.1",
    "@fortawesome/free-regular-svg-icons": "^5.12.1",
    "@fortawesome/free-solid-svg-icons": "^5.12.1",
    "@fortawesome/vue-fontawesome": "^0.1.9",
    "@hipsjs/flowy-vue": "^1.0.13",
    "add": "^2.0.6",
    "axios": "^0.21.0",
    "bootstrap": "^4.4.1",
    "bootstrap-table": "^1.16.0",
    "chart.js": "^2.9.3",
    "core-js": "^2.6.11",
    "deepmerge": "^4.2.2",
    "froala-pages": "^1.0.3",
    "i": "^0.3.6",
    "ionicons": "^4.6.3",
    "jquery-validation": "^1.19.1",
    "jsdom": "^15.2.1",
    "lodash": "^4.17.20",
    "material-design-icons-iconfont": "^6.1.0",
    "mini-toastr": "^0.8.1",
    "moment": "^2.24.0",
    "npm": "^6.13.7",
    "popper.js": "^1.16.1",
    "postcss-loader": "^3.0.0",
    "sass": "^1.30.0",
    "style-loader": "^1.1.3",
    "toastr": "^2.1.4",
    "tui-image-editor": "^3.7.3",
    "v-select2-component": "^0.3.9",
    "vue": "^2.6.11",
    "vue-bootstrap-datetimepicker": "^5.0.1",
    "vue-chartjs": "^3.5.0",
    "vue-codemirror": "^4.0.6",
    "vue-dynamic-select": "^1.0.16",
    "vue-flatpickr-component": "^8.1.5",
    "vue-froala-wysiwyg": "^3.1.0",
    "vue-js-modal": "^1.3.33",
    "vue-meta": "^2.3.2",
    "vue-quaggajs": "^1.0.10",
    "vue-quill-editor": "^3.0.6",
    "vue-router": "^3.1.5",
    "vue-select": "^3.4.0",
    "vue-social-sharing": "^2.4.7",
    "vue-super-call": "^1.0.0",
    "vue-visible": "^1.0.2",
    "vue-web-cam": "^1.9.0",
    "vuedraggable": "^2.23.2",
    "vuetify": "^2.3.18",
    "webcamjs": "^1.0.26",
    "webpack": "^4.41.6",
    "webpack-cli": "^3.3.10",
    "xmldom": "^0.1.31"
  },
  "devDependencies": {
    "@ckeditor/ckeditor5-adapter-ckfinder": "^15.0.0",
    "@ckeditor/ckeditor5-alignment": "^15.0.0",
    "@ckeditor/ckeditor5-autoformat": "^15.0.0",
    "@ckeditor/ckeditor5-basic-styles": "^15.0.0",
    "@ckeditor/ckeditor5-block-quote": "^15.0.0",
    "@ckeditor/ckeditor5-ckfinder": "^15.0.0",
    "@ckeditor/ckeditor5-core": "^15.0.0",
    "@ckeditor/ckeditor5-dev-utils": "^12.0.7",
    "@ckeditor/ckeditor5-dev-webpack-plugin": "^8.0.7",
    "@ckeditor/ckeditor5-easy-image": "^15.0.0",
    "@ckeditor/ckeditor5-editor-classic": "^15.0.0",
    "@ckeditor/ckeditor5-essentials": "^15.0.0",
    "@ckeditor/ckeditor5-heading": "^15.0.0",
    "@ckeditor/ckeditor5-horizontal-line": "^15.0.0",
    "@ckeditor/ckeditor5-image": "^15.0.0",
    "@ckeditor/ckeditor5-indent": "^15.0.0",
    "@ckeditor/ckeditor5-link": "^15.0.0",
    "@ckeditor/ckeditor5-list": "^15.0.0",
    "@ckeditor/ckeditor5-media-embed": "^15.0.0",
    "@ckeditor/ckeditor5-paragraph": "^15.0.0",
    "@ckeditor/ckeditor5-paste-from-office": "^15.0.0",
    "@ckeditor/ckeditor5-table": "^15.0.0",
    "@ckeditor/ckeditor5-theme-lark": "^15.0.0",
    "@ckeditor/ckeditor5-word-count": "^15.0.0",
    "@vue/cli-plugin-babel": "^3.12.1",
    "@vue/cli-plugin-eslint": "^3.12.1",
    "@vue/cli-service": "^3.12.1",
    "@vue/eslint-config-standard": "^4.0.0",
    "babel-eslint": "^10.0.3",
    "eslint": "^5.16.0",
    "eslint-plugin-vue": "^5.2.3",
    "expose-loader": "^0.7.5",
    "node-sass": "^4.14.1",
    "sass-loader": "^8.0.2",
    "vue-template-compiler": "^2.6.11"
  },
  "eslintConfig": {
    "root": true,
    "env": {
      "node": true
    },
    "extends": [
      "plugin:vue/essential",
      "@vue/standard"
    ],
    "rules": {},
    "parserOptions": {
      "parser": "babel-eslint"
    }
  },
  "postcss": {
    "plugins": {
      "autoprefixer": {}
    }
  },
  "browserslist": [
    "> 1%",
    "last 2 versions"
  ]
}
